[
	{
		"uid":"smartCamMain",
		"append":true,
		"watch":false,
		"script":"smartCam.js",
		"sourceDir":"/home/pi/SmartCam/worker/main/",
		"workingDir":"/home/pi/SmartCam/worker/main/",
		"minUpTime":1,
		"spinSleepTime":200
	},
	{
		"uid":"smartCamPage",
		"append":true,
		"watch":false,
		"script":"./bin/www",
		"sourceDir":"/home/pi/SmartCam/worker/main/",
		"workingDir":"/home/pi/SmartCam/worker/main/",
		"minUpTime":1,
		"spinSleepTime":200
	},
	{
		"uid":"ruleEngine",
		"append":true,
		"watch":false,
		"script":"rules.js",
		"sourceDir":"/home/pi/SmartCam/worker/ruleEngine/",
		"workingDir":"/home/pi/SmartCam/worker/ruleEngine/",
		"minUpTime":1,
		"spinSleepTime":200
	}
]
