{
	"Commands":{
		"getChannels":{"action":"GetChannels", "message":{}},
		"getCameraList":{"action":"GetCameraList","message":{}},
		"getGroupList":{"action":"GetGroupList","message":{}},
		"setStatus":{"action":"SetStatus","message":{"value":"","target":""}},
		"currentStatus":{"action":"CurrentStatus","message":{"currentValue":"","target":""}}
	},
	
	"Responses":{
		"getChannels":{"action":"GetChannels", "message":{"id":"","name":"","status":"","frameUrl":""}},
		"getCameraList":{"action":"GetCameraList","message":{"cameras":[]}},
		"getGroupList":{"action":"GetGroupList","message":{"groups":[],"scenes":[]}}
	},
	"RpcQuery":{
		"getChannelImages":{"action":"GetChannelImages", "message":{"id":""}},
		"getChannelInfo":{"action":"GetChannelInfo","message":{"id":""}},
		"saveChannelInfo":{"action":"SaveChannelInfo","message":{"id":"","name":"","selectedCamera":""}},
		"getInfoEditRule":{"action":"GetInfoEditRule","message":{"ruleId":"","channelId":""}},
		"getRule":{"action":"GetRule","message":{"ruleId":""}},
		"getAllRules":{"action":"GetAllRules","message":{"channelId":""}},
		"getAllTargets":{"action":"GetAllTargets","message":{}},
		"saveRule":{"action":"SaveRule","message":{"ruleId":"","channelId":"","event":"","count":"","startTime":"","stopTime":"","selectedDays":"","selectedAction":"","actValue":"","target":""}},
		"setStatus":{"action":"SetStatus","message":{"channelId":"","value":"","target":""}},
		"currentStatus":{"action":"CurrentStatus","message":{"currentValue":"","target":""}},
		"getCameraUrls":{"action":"GetCameraUrls","message":{}},
		"deleteRule":{"action":"DeleteRule","message":{"ruleId":""}},
		"restartRuleEngine":{"action":"RestartRuleEngine", "message":{}}
	},
	"RpcResponse":{
		"getChannelImages":{"response":"false", "message":{"id":"", "fileNames":[]}},
		"getChannelInfo":{"response":"false","message":{"id":"","name":"","status":"","triggers":[],"selectedCamera":"","rules":{},"cameras":[],"groups":[],"scenes":[]}},
		"saveChannelInfo":{"response":"false","message":{}},
		"getInfoEditRule":{"response":"false","message":{"ruleId":"","channelId":"","event":"","count":"","startTime":"","stopTime":"","selectedDays":"","selectedAction":"","actValue":"","target":"","triggers":[],"actions":"","groups":[],"scenes":[]}},
		"getRule":{"response":"false","message":{"ruleId":"","channelId":"","event":"","count":"","startTime":"","stopTime":"","selectedDays":"","selectedAction":"","actValue":"","target":""}},
		"getAllRules":{"response":"false","message":{"rules":[]}},
		"saveRule":{"response":"false","message":{"ruleId":""}},	
		"getCameraUrls":{"response":"false","message":{"urls":{}}},
		"deleteRule":{"response":"false","message":{}},
		"getAllTargets":{"response":"false","message":{"targets":[]}}
	}
}
